%YAML 1.1
%TAG !u! tag:unity3d.com,2011:
--- !u!114 &11400000
MonoBehaviour:
  m_ObjectHideFlags: 0
  m_CorrespondingSourceObject: {fileID: 0}
  m_PrefabInstance: {fileID: 0}
  m_PrefabAsset: {fileID: 0}
  m_GameObject: {fileID: 0}
  m_Enabled: 1
  m_EditorHideFlags: 0
  m_Script: {fileID: 11500000, guid: ec4ddad888284bafbe679cfeaac83bc4, type: 3}
  m_Name: MainMenuScreenProvider
  m_EditorClassIdentifier: 
  screens:
  - {fileID: 4896881415993920595, guid: b8650df5354874a498f226a3d1371b42, type: 3}
  - {fileID: 7995530011483396817, guid: c060b8ea56724b82a7b439a16512e98b, type: 3}
  - {fileID: 5740786585033853576, guid: 4bc2f7add9d0d4c7c913016a97d9f445, type: 3}
