%YAML 1.1
%TAG !u! tag:unity3d.com,2011:
--- !u!114 &11400000
MonoBehaviour:
  m_ObjectHideFlags: 0
  m_CorrespondingSourceObject: {fileID: 0}
  m_PrefabInstance: {fileID: 0}
  m_PrefabAsset: {fileID: 0}
  m_GameObject: {fileID: 0}
  m_Enabled: 1
  m_EditorHideFlags: 0
  m_Script: {fileID: 11500000, guid: 5d0199c11aa6f514784c5c69cd8378d8, type: 3}
  m_Name: PlayFabEditorPrefsSO
  m_EditorClassIdentifier: 
  DevAccountEmail: lucianopcbr@gmail.com
  DevAccountToken: 5ido6wox7fin6aoygnojfd3nc3uicgm8bj5ur18daac1x1rj9yh65cf8xm3137asi84dm1s8w4pcnixd3w9u1oc7g3rijjk1r8wm97xo9b7gcys41419bihyt3u8uj9etqa4pe5hjefegci4m4n17a1mhx3zzmt6q167qm6oofxz5m7r6up9mj5z54mh4d6f33wygujf
  SelectedStudio: Studio-001
  SdkPath: Assets/PlayFabSDK
  EdExPath: 
  LocalCloudScriptPath: 
  PanelIsShown: 0
  curMainMenuIdx: 3
  curSubMenuIdx: 0
